##analysisDate=2018-04-18-14-13-06-000
##analyzedBy=Molec Diag
##exportDate=2018-04-19-13-59-06-000
##analysisName=1278-18_180417A_v170808_v1_a7d2daca-fb85-4a84-877f-65b9888f65f3
##workflowName=OFA_DNA_530_v170808
##sampleNames=1278-18_180417A_v170808_v1
##reference=hg19
##variantGroup=DEFAULT
##filterChain=OFAv170807
##searchText=
##chromosome=All
##totalVariantCount=506
##filterInCount=6
##filteredOutCount=500
##hiddenVariantCount=0
Locus	Genotype	Ref	Observed Allele	Type	No Call Reason	Genes	Location	Length	Oncomine Variant Class	Oncomine Gene Class	Info	Variant ID	Variant Name	% Frequency	Amino Acid Change	Read Counts	Coverage	Allele Ratio	Strand	Exon	Transcript	Coding	Variant Effect	PhyloP	SIFT	Grantham	PolyPhen	FATHMM	PFAM	dbSNP	DGV	MAF	EMAF	AMAF	GMAF	UCSC Common SNPs	ExAC LAF	ExAC EAAF	ExAC OAF	ExAC EFAF	ExAC SAAF	ExAC ENFAF	ExAC AAF	ExAC GAF	COSMIC	Gene Ontology	DRA	DrugBank	ClinVar	Allele Coverage	p-value	Phred QUAL Score	Ref+/Ref-/Var+/Var-	Homopolymer Length	AMX_Hotspot_controls_db
chr2:29416572	C/C	T	C	SNV		ALK	exonic	1						99.83	p.Ile1461Val		2879	T=0.0017, C=0.9983	-	29	NM_004304.4	c.4381A>G	missense	-0.73	1.0	29.0	0.0		MAM domain, meprin/A5/mu,Protein kinase domain,Protein tyrosine kinase	rs1670283		0.008 (ref)	3.0E-4	0.0279	0.0097		9.99E-1	1.0	9.989E-1	1.0	1.0	9.997E-1	9.701E-1	9.972E-1		ATP binding,NF-kappaB-inducing kinase activity,NIK/NF-kappaB signaling,activation of MAPK activity,cell proliferation,extracellular exosome,identical protein binding,integral component of plasma membrane,intracellular,neuron development,peptidyl-tyrosine phosphorylation,phosphorylation,positive regulation of NF-kappaB transcription factor activity,protein autophosphorylation,protein binding,protein complex,protein tyrosine kinase activity,regulation of apoptotic process,signal transduction,transmembrane receptor protein tyrosine kinase activity,transmembrane receptor protein tyrosine kinase signaling pathway	Adenocarcinoma,Brain Diseases,Brain Neoplasms,Breast Diseases,Breast Neoplasms,Bronchial Neoplasms,Carcinogenesis,Carcinoma,Carcinoma, Bronchogenic,Carcinoma, Non-Small-Cell Lung,Carcinoma, Renal Cell,Cell Transformation, Neoplastic,Central Nervous System Diseases,Central Nervous System Neoplasms,Female Urogenital Diseases,Female Urogenital Diseases and Pregnancy Complications,Hemic and Lymphatic Diseases,Immune System Diseases,Immunoproliferative Disorders,Inflammatory Breast Neoplasms,Kidney Diseases,Kidney Neoplasms,Lung Diseases,Lung Neoplasms,Lymphatic Diseases,Lymphoma,Lymphoma, B-Cell,Lymphoma, Large B-Cell, Diffuse,Lymphoma, Large-Cell, Anaplastic,Lymphoma, Non-Hodgkin,Lymphoma, T-Cell,Lymphoproliferative Disorders,Male Urogenital Diseases,Neoplasm Metastasis,Neoplasm Recurrence, Local,Neoplasms,Neoplasms by Histologic Type,Neoplasms by Site,Neoplasms, Germ Cell and Embryonal,Neoplasms, Glandular and Epithelial,Neoplasms, Nerve Tissue,Neoplasms, Neuroepithelial,Neoplastic Processes,Nervous System Diseases,Nervous System Neoplasms,Neuroblastoma,Neuroectodermal Tumors,Neuroectodermal Tumors, Primitive,Neuroectodermal Tumors, Primitive, Peripheral,Plasma Cell Granuloma, Pulmonary,Respiratory Tract Diseases,Respiratory Tract Neoplasms,Skin Diseases,Skin and Connective Tissue Diseases,Thoracic Neoplasms,Urogenital Neoplasms,Urologic Diseases,Urologic Neoplasms	Adenosine triphosphate,Alectinib,Ceritinib,Crizotinib	Benign	T=5, C=2874	0.00001	39957.5	T=3/2, C=1519/1355	1	
chr7:55241710	T/G	T	G	SNV		EGFR	exonic	1						11.31	p.Ser720Ala		4237	T=0.8869, G=0.1131	+	18	NM_005228.3	c.2158T>G	missense	7.97	0.08	99.0	0.193	0.976,0.977	Furin-like cysteine rich region,Protein kinase domain,Protein tyrosine kinase,Receptor L domain																adenocarcinoma	AP-2 adaptor complex,ATP binding,ERBB2 signaling pathway,Golgi membrane,MAP kinase kinase kinase activity,MAPK cascade,Ras guanyl-nucleotide exchange factor activity,Shc-EGFR complex,actin filament binding,activation of MAPKK activity,activation of phospholipase A2 activity by calcium-mediated signaling,activation of phospholipase C activity,basolateral plasma membrane,cell morphogenesis,cell proliferation,cell surface,cell surface receptor signaling pathway,cellular response to amino acid stimulus,cellular response to epidermal growth factor stimulus,cellular response to estradiol stimulus,cerebral cortex cell migration,chromatin binding,cytoplasm,digestive tract morphogenesis,double-stranded DNA binding,early endosome membrane,embryonic placenta development,endoplasmic reticulum membrane,endosome,endosome membrane,enzyme binding,epidermal growth factor receptor signaling pathway,epidermal growth factor-activated receptor activity,extracellular space,eyelid development in camera-type eye,focal adhesion,hair follicle development,identical protein binding,integral component of membrane,learning or memory,membrane,membrane raft,morphogenesis of an epithelial fold,multivesicular body, internal vesicle lumen,negative regulation of apoptotic process,negative regulation of epidermal growth factor receptor signaling pathway,negative regulation of protein catabolic process,nitric-oxide synthase regulator activity,nuclear membrane,nucleus,ossification,peptidyl-tyrosine phosphorylation,perinuclear region of cytoplasm,phosphatidylinositol phosphorylation,phosphatidylinositol-4,5-bisphosphate 3-kinase activity,phosphatidylinositol-mediated signaling,plasma membrane,positive regulation of DNA repair,positive regulation of DNA replication,positive regulation of ERK1 and ERK2 cascade,positive regulation of GTPase activity,positive regulation of MAP kinase activity,positive regulation of catenin import into nucleus,positive regulation of cell growth,positive regulation of cell migration,positive regulation of cell proliferation,positive regulation of cyclin-dependent protein serine/threonine kinase activity involved in G1/S transition of mitotic cell cycle,positive regulation of epithelial cell proliferation,positive regulation of fibroblast proliferation,positive regulation of nitric oxide biosynthetic process,positive regulation of phosphorylation,positive regulation of production of miRNAs involved in gene silencing by miRNA,positive regulation of protein kinase B signaling,positive regulation of protein phosphorylation,positive regulation of transcription from RNA polymerase II promoter,protein autophosphorylation,protein binding,protein heterodimerization activity,protein insertion into membrane,protein phosphatase binding,protein tyrosine kinase activity,receptor complex,regulation of cell motility,regulation of nitric-oxide synthase activity,regulation of peptidyl-tyrosine phosphorylation,regulation of phosphatidylinositol 3-kinase signaling,response to UV-A,response to stress,salivary gland morphogenesis,signal transducer, downstream of receptor, with protein tyrosine kinase activity,signal transduction,single organismal cell-cell adhesion,transmembrane receptor protein tyrosine kinase activity,transmembrane signaling receptor activity,ubiquitin protein ligase binding	Acneiform Eruptions,Acute Kidney Injury,Adenocarcinoma,Adenoma,Adnexal Diseases,Adrenal Cortex Diseases,Adrenal Cortex Neoplasms,Adrenal Gland Diseases,Adrenal Gland Neoplasms,Adrenocortical Carcinoma,Arthritis,Arthritis, Experimental,Astrocytoma,Bile Duct Diseases,Bile Duct Neoplasms,Biliary Tract Diseases,Biliary Tract Neoplasms,Breast Diseases,Breast Neoplasms,Bronchial Neoplasms,Carcinoma,Carcinoma, Bronchogenic,Carcinoma, Hepatocellular,Carcinoma, Non-Small-Cell Lung,Carcinoma, Squamous Cell,Cardiomegaly,Cardiomyopathies,Cardiomyopathy, Dilated,Cardiovascular Diseases,Chloracne,Cholangiocarcinoma,Colonic Diseases,Colonic Neoplasms,Colorectal Neoplasms,Congenital Abnormalities,Congenital, Hereditary, and Neonatal Diseases and Abnormalities,Craniofacial Abnormalities,Diabetes Mellitus,Diabetes Mellitus, Type 2,Digestive System Diseases,Digestive System Neoplasms,Endocrine Gland Neoplasms,Endocrine System Diseases,Endometriosis,Esophageal Diseases,Esophageal Neoplasms,Female Urogenital Diseases,Female Urogenital Diseases and Pregnancy Complications,Gallbladder Diseases,Gallbladder Neoplasms,Gastrointestinal Diseases,Gastrointestinal Neoplasms,Genetic Diseases, Inborn,Genital Diseases, Female,Genital Diseases, Male,Genital Neoplasms, Female,Genital Neoplasms, Male,Glioblastoma,Glioma,Gliosarcoma,Glucose Metabolism Disorders,Gonadal Disorders,Head and Neck Neoplasms,Heart Diseases,Hyperinsulinism,Immune System Diseases,Insulin Resistance,Intestinal Diseases,Intestinal Neoplasms,Joint Diseases,Kidney Diseases,Kidney Diseases, Cystic,Liver Diseases,Liver Neoplasms,Lung Diseases,Lung Diseases, Obstructive,Lung Neoplasms,Male Urogenital Diseases,Mammary Neoplasms, Animal,Mammary Neoplasms, Experimental,Mesothelioma,Metabolic Diseases,Musculoskeletal Abnormalities,Musculoskeletal Diseases,Nasopharyngeal Diseases,Nasopharyngeal Neoplasms,Neoplasm Invasiveness,Neoplasm Metastasis,Neoplasm Recurrence, Local,Neoplasms,Neoplasms by Histologic Type,Neoplasms by Site,Neoplasms, Bone Tissue,Neoplasms, Connective Tissue,Neoplasms, Connective and Soft Tissue,Neoplasms, Experimental,Neoplasms, Germ Cell and Embryonal,Neoplasms, Glandular and Epithelial,Neoplasms, Mesothelial,Neoplasms, Nerve Tissue,Neoplasms, Neuroepithelial,Neoplasms, Squamous Cell,Neoplastic Processes,Neuroectodermal Tumors,Nutritional and Metabolic Diseases,Osteosarcoma,Otorhinolaryngologic Diseases,Otorhinolaryngologic Neoplasms,Ovarian Diseases,Ovarian Neoplasms,Papilloma,Pharyngeal Diseases,Pharyngeal Neoplasms,Polycystic Kidney Diseases,Polycystic Kidney, Autosomal Recessive,Prostatic Diseases,Prostatic Neoplasms,Rectal Diseases,Rectal Neoplasms,Renal Insufficiency,Respiratory Tract Diseases,Respiratory Tract Neoplasms,Sarcoma,Skin Diseases,Skin and Connective Tissue Diseases,Small Cell Lung Carcinoma,Stomach Diseases,Stomach Neoplasms,Stomatognathic Diseases,Thoracic Neoplasms,Urinary Bladder Diseases,Urinary Bladder Neoplasms,Urogenital Neoplasms,Urologic Diseases,Urologic Neoplasms,Uterine Cervical Diseases,Uterine Cervical Neoplasms,Uterine Diseases,Uterine Neoplasms	Afatinib,CDX-110,CI-1033,Cetuximab,Erlotinib,Flavopiridol,Gefitinib,HuMax-EGFr,IGN311,IMC-11F8,INSM-18,Lapatinib,Lidocaine,Matuzumab,N-4-(3-BROMO-PHENYLAMINO)-QUINAZOLIN-6-YL-ACRYLAMIDE,Necitumumab,Osimertinib,Panitumumab,S-{3-(4-ANILINOQUINAZOLIN-6-YL)AMINO-3-OXOPROPYL}-L-CYSTEINE,Trastuzumab,Vandetanib		T=3758, G=479	0.00001	887.878	T=1790/1968, G=203/276	1	
chr7:55242465	GGAATTAAGAGAAGCAACATCTCCGA/GGAACCAACATCTCCGA	GGAATTAAGAGAAGCAACATCTCCGA	GAGACCAACATCTCCGA,GATATCTCCGA,GATCCCGA,GATCTCGA,GATTCCGA,GATTCCTTCTCCGA,GCAACCAACATCTCCGA,GCAATCTCCGA,GCTATCTCCGA,GCTCTCGA,GGAACCAACATCTCCGA,GG,GGCATCTCCGA,GGCTCCGA,GTCATCTCCGA	INDEL		EGFR	exonic	1			HS	COSM12413;COSM13557;COSM12382;COSM12678;COSM26513;COSM26680;COSM22999;COSM133187;COSM51526;COSM12367;COSM133188;COSM133190;COSM133191;COSM13200;COSM24970		GAGACCAACATCTCCGA=0.00, GATATCTCCGA=0.00, GATCCCGA=0.00, GATCTCGA=0.00, GATTCCGA=0.00, GATTCCTTCTCCGA=0.00, GCAACCAACATCTCCGA=0.00, GCAATCTCCGA=0.00, GCTATCTCCGA=0.00, GCTCTCGA=0.00, GGAACCAACATCTCCGA=20.00, GG=0.00, GGCATCTCCGA=0.00, GGCTCCGA=0.00, GTCATCTCCGA=0.00	p.Leu747_Ala750delinsPro		835	GGAATTAAGAGAAGCAACATCTCCGA=0.8, GAGACCAACATCTCCGA=0.0, GATATCTCCGA=0.0, GATCCCGA=0.0, GATCTCGA=0.0, GATTCCGA=0.0, GATTCCTTCTCCGA=0.0, GCAACCAACATCTCCGA=0.0, GCAATCTCCGA=0.0, GCTATCTCCGA=0.0, GCTCTCGA=0.0, GGAACCAACATCTCCGA=0.2, GG=0.0, GGCATCTCCGA=0.0, GGCTCCGA=0.0, GTCATCTCCGA=0.0	+	19	NM_005228.3	c.2239_2248delTTAAGAGAAGinsC	nonframeshiftBlockSubstitution	2.76,9.76,6.65,-0.71,1.79,7.96,0.66,0.69,9.76,6.22,9.76,9.24,2.75,7.9,5.89,0.26,9.24,7.74,-3.04,7.96,6.0,0.26,5.99,5.9,-2.58,9.24					Furin-like cysteine rich region,Protein kinase domain,Protein tyrosine kinase,Receptor L domain	rs121913229,rs121913231,rs121913421,rs121913422,rs121913423,rs121913424,rs121913425,rs121913426,rs121913427,rs121913435,rs121913436,rs121913437,rs121913438,rs121913439,rs121913440,rs121913441,rs121913442,rs121913463,rs121913464,rs397509368,rs397517094,rs397517095,rs397517096,rs397517097,rs397517098,rs397517099,rs397517100,rs397517101,rs559717059,rs727503014,rs727503015,rs727503016,rs727504232,rs727504233,rs727504257,rs727504258,rs727504266,rs727504278,rs727504281,rs727504282,rs727504284,rs727504316,rs727504324,rs727504332,rs727504339,rs727504395,rs727504402,rs727504414,rs727504428,rs727504444,rs764064214							0.0	0.0,1.156E-4	0.0	0.0	0.0,6.059E-5	0.0,1.2E-4,1.499E-5,2.999E-5	0.0	2.473E-5,6.595E-5,8.242E-6,8.243E-6	NS,acinar_adenocarcinoma,adenocarcinoma,basal_(triple-negative)_carcinoma,bronchioloalveolar_adenocarcinoma,hyperplasia,large_cell_carcinoma,mixed_adenosquamous_carcinoma,mixed_small_cell_carcinoma-adenocarcinoma,non_small_cell_carcinoma,oncocytic_adenocarcinoma,papillary_carcinoma,salivary_duct_carcinoma,small_cell_carcinoma,squamous_cell_carcinoma	AP-2 adaptor complex,ATP binding,ERBB2 signaling pathway,Golgi membrane,MAP kinase kinase kinase activity,MAPK cascade,Ras guanyl-nucleotide exchange factor activity,Shc-EGFR complex,actin filament binding,activation of MAPKK activity,activation of phospholipase A2 activity by calcium-mediated signaling,activation of phospholipase C activity,basolateral plasma membrane,cell morphogenesis,cell proliferation,cell surface,cell surface receptor signaling pathway,cellular response to amino acid stimulus,cellular response to epidermal growth factor stimulus,cellular response to estradiol stimulus,cerebral cortex cell migration,chromatin binding,cytoplasm,digestive tract morphogenesis,double-stranded DNA binding,early endosome membrane,embryonic placenta development,endoplasmic reticulum membrane,endosome,endosome membrane,enzyme binding,epidermal growth factor receptor signaling pathway,epidermal growth factor-activated receptor activity,extracellular space,eyelid development in camera-type eye,focal adhesion,hair follicle development,identical protein binding,integral component of membrane,learning or memory,membrane,membrane raft,morphogenesis of an epithelial fold,multivesicular body, internal vesicle lumen,negative regulation of apoptotic process,negative regulation of epidermal growth factor receptor signaling pathway,negative regulation of protein catabolic process,nitric-oxide synthase regulator activity,nuclear membrane,nucleus,ossification,peptidyl-tyrosine phosphorylation,perinuclear region of cytoplasm,phosphatidylinositol phosphorylation,phosphatidylinositol-4,5-bisphosphate 3-kinase activity,phosphatidylinositol-mediated signaling,plasma membrane,positive regulation of DNA repair,positive regulation of DNA replication,positive regulation of ERK1 and ERK2 cascade,positive regulation of GTPase activity,positive regulation of MAP kinase activity,positive regulation of catenin import into nucleus,positive regulation of cell growth,positive regulation of cell migration,positive regulation of cell proliferation,positive regulation of cyclin-dependent protein serine/threonine kinase activity involved in G1/S transition of mitotic cell cycle,positive regulation of epithelial cell proliferation,positive regulation of fibroblast proliferation,positive regulation of nitric oxide biosynthetic process,positive regulation of phosphorylation,positive regulation of production of miRNAs involved in gene silencing by miRNA,positive regulation of protein kinase B signaling,positive regulation of protein phosphorylation,positive regulation of transcription from RNA polymerase II promoter,protein autophosphorylation,protein binding,protein heterodimerization activity,protein insertion into membrane,protein phosphatase binding,protein tyrosine kinase activity,receptor complex,regulation of cell motility,regulation of nitric-oxide synthase activity,regulation of peptidyl-tyrosine phosphorylation,regulation of phosphatidylinositol 3-kinase signaling,response to UV-A,response to stress,salivary gland morphogenesis,signal transducer, downstream of receptor, with protein tyrosine kinase activity,signal transduction,single organismal cell-cell adhesion,transmembrane receptor protein tyrosine kinase activity,transmembrane signaling receptor activity,ubiquitin protein ligase binding	Acneiform Eruptions,Acute Kidney Injury,Adenocarcinoma,Adenoma,Adnexal Diseases,Adrenal Cortex Diseases,Adrenal Cortex Neoplasms,Adrenal Gland Diseases,Adrenal Gland Neoplasms,Adrenocortical Carcinoma,Arthritis,Arthritis, Experimental,Astrocytoma,Bile Duct Diseases,Bile Duct Neoplasms,Biliary Tract Diseases,Biliary Tract Neoplasms,Breast Diseases,Breast Neoplasms,Bronchial Neoplasms,Carcinoma,Carcinoma, Bronchogenic,Carcinoma, Hepatocellular,Carcinoma, Non-Small-Cell Lung,Carcinoma, Squamous Cell,Cardiomegaly,Cardiomyopathies,Cardiomyopathy, Dilated,Cardiovascular Diseases,Chloracne,Cholangiocarcinoma,Colonic Diseases,Colonic Neoplasms,Colorectal Neoplasms,Congenital Abnormalities,Congenital, Hereditary, and Neonatal Diseases and Abnormalities,Craniofacial Abnormalities,Diabetes Mellitus,Diabetes Mellitus, Type 2,Digestive System Diseases,Digestive System Neoplasms,Endocrine Gland Neoplasms,Endocrine System Diseases,Endometriosis,Esophageal Diseases,Esophageal Neoplasms,Female Urogenital Diseases,Female Urogenital Diseases and Pregnancy Complications,Gallbladder Diseases,Gallbladder Neoplasms,Gastrointestinal Diseases,Gastrointestinal Neoplasms,Genetic Diseases, Inborn,Genital Diseases, Female,Genital Diseases, Male,Genital Neoplasms, Female,Genital Neoplasms, Male,Glioblastoma,Glioma,Gliosarcoma,Glucose Metabolism Disorders,Gonadal Disorders,Head and Neck Neoplasms,Heart Diseases,Hyperinsulinism,Immune System Diseases,Insulin Resistance,Intestinal Diseases,Intestinal Neoplasms,Joint Diseases,Kidney Diseases,Kidney Diseases, Cystic,Liver Diseases,Liver Neoplasms,Lung Diseases,Lung Diseases, Obstructive,Lung Neoplasms,Male Urogenital Diseases,Mammary Neoplasms, Animal,Mammary Neoplasms, Experimental,Mesothelioma,Metabolic Diseases,Musculoskeletal Abnormalities,Musculoskeletal Diseases,Nasopharyngeal Diseases,Nasopharyngeal Neoplasms,Neoplasm Invasiveness,Neoplasm Metastasis,Neoplasm Recurrence, Local,Neoplasms,Neoplasms by Histologic Type,Neoplasms by Site,Neoplasms, Bone Tissue,Neoplasms, Connective Tissue,Neoplasms, Connective and Soft Tissue,Neoplasms, Experimental,Neoplasms, Germ Cell and Embryonal,Neoplasms, Glandular and Epithelial,Neoplasms, Mesothelial,Neoplasms, Nerve Tissue,Neoplasms, Neuroepithelial,Neoplasms, Squamous Cell,Neoplastic Processes,Neuroectodermal Tumors,Nutritional and Metabolic Diseases,Osteosarcoma,Otorhinolaryngologic Diseases,Otorhinolaryngologic Neoplasms,Ovarian Diseases,Ovarian Neoplasms,Papilloma,Pharyngeal Diseases,Pharyngeal Neoplasms,Polycystic Kidney Diseases,Polycystic Kidney, Autosomal Recessive,Prostatic Diseases,Prostatic Neoplasms,Rectal Diseases,Rectal Neoplasms,Renal Insufficiency,Respiratory Tract Diseases,Respiratory Tract Neoplasms,Sarcoma,Skin Diseases,Skin and Connective Tissue Diseases,Small Cell Lung Carcinoma,Stomach Diseases,Stomach Neoplasms,Stomatognathic Diseases,Thoracic Neoplasms,Urinary Bladder Diseases,Urinary Bladder Neoplasms,Urogenital Neoplasms,Urologic Diseases,Urologic Neoplasms,Uterine Cervical Diseases,Uterine Cervical Neoplasms,Uterine Diseases,Uterine Neoplasms	Afatinib,CDX-110,CI-1033,Cetuximab,Erlotinib,Flavopiridol,Gefitinib,HuMax-EGFr,IGN311,IMC-11F8,INSM-18,Lapatinib,Lidocaine,Matuzumab,N-4-(3-BROMO-PHENYLAMINO)-QUINAZOLIN-6-YL-ACRYLAMIDE,Necitumumab,Osimertinib,Panitumumab,S-{3-(4-ANILINOQUINAZOLIN-6-YL)AMINO-3-OXOPROPYL}-L-CYSTEINE,Trastuzumab,Vandetanib		GGAATTAAGAGAAGCAACATCTCCGA=668, GAGACCAACATCTCCGA=0, GATATCTCCGA=0, GATCCCGA=0, GATCTCGA=0, GATTCCGA=0, GATTCCTTCTCCGA=0, GCAACCAACATCTCCGA=0, GCAATCTCCGA=0, GCTATCTCCGA=0, GCTCTCGA=0, GGAACCAACATCTCCGA=167, GG=0, GGCATCTCCGA=0, GGCTCCGA=0, GTCATCTCCGA=0	0.00001	1085.67	GGAATTAAGAGAAGCAACATCTCCGA=402/266, GAGACCAACATCTCCGA=0/0, GATATCTCCGA=0/0, GATCCCGA=0/0, GATCTCGA=0/0, GATTCCGA=0/0, GATTCCTTCTCCGA=0/0, GCAACCAACATCTCCGA=0/0, GCAATCTCCGA=0/0, GCTATCTCCGA=0/0, GCTCTCGA=0/0, GGAACCAACATCTCCGA=110/57, GG=0/0, GGCATCTCCGA=0/0, GGCTCCGA=0/0, GTCATCTCCGA=0/0	2,2,2,2,2,2,2,2,2,2,2,2,2,2,2	
chr7:128846395	G/C	G	C	SNV		SMO	exonic	1						6.04	p.Val411Leu		2782	G=0.9396, C=0.0604	+	6	NM_005631.4	c.1231G>C	missense	9.84	0.05	32.0	0.889		Frizzled/Smoothened family membrane region,Fz domain																	G-protein coupled receptor activity,G-protein coupled receptor signaling pathway,Golgi apparatus,Wnt-activated receptor activity,Wnt-protein binding,anterior/posterior pattern specification,astrocyte activation,atrial septum morphogenesis,canonical Wnt signaling pathway,caveola,cell fate specification,cellular response to cholesterol,central nervous system neuron differentiation,cerebellar cortex morphogenesis,cerebral cortex development,ciliary membrane,ciliary tip,dentate gyrus development,detection of cell density by contact stimulus involved in contact inhibition,determination of left/right asymmetry in lateral mesoderm,dorsal/ventral neural tube patterning,drug binding,endocytic vesicle membrane,epithelial-mesenchymal cell signaling,extracellular exosome,forebrain morphogenesis,hair follicle morphogenesis,heart looping,homeostasis of number of cells within a tissue,in utero embryonic development,integral component of membrane,intracellular membrane-bounded organelle,left/right axis specification,mammary gland epithelial cell differentiation,mesenchymal to epithelial transition involved in metanephric renal vesicle formation,midgut development,multicellular organism growth,myoblast migration,negative regulation of DNA binding,negative regulation of apoptotic process,negative regulation of epithelial cell differentiation,negative regulation of gene expression,negative regulation of hair follicle development,negative regulation of transcription from RNA polymerase II promoter,neural crest cell migration,non-canonical Wnt signaling pathway,odontogenesis of dentin-containing tooth,osteoblast differentiation,pancreas morphogenesis,patched binding,plasma membrane,positive regulation of branching involved in ureteric bud morphogenesis,positive regulation of epithelial cell proliferation,positive regulation of gene expression,positive regulation of hh target transcription factor activity,positive regulation of mesenchymal cell proliferation,positive regulation of multicellular organism growth,positive regulation of neuroblast proliferation,positive regulation of organ growth,positive regulation of protein import into nucleus,positive regulation of smoothened signaling pathway,positive regulation of transcription from RNA polymerase II promoter,protein binding,protein localization to nucleus,protein stabilization,regulation of heart morphogenesis,regulation of stem cell population maintenance,renal system development,skeletal muscle fiber development,smoothened signaling pathway,smoothened signaling pathway involved in regulation of cerebellar granule cell precursor cell proliferation,smoothened signaling pathway involved in ventral spinal cord patterning,somite development,thalamus development,type B pancreatic cell development,vasculogenesis,ventral midline determination	Ameloblastoma,Bone Diseases,Bone Neoplasms,Brain Diseases,Brain Neoplasms,Carcinoma,Carcinoma, Basal Cell,Central Nervous System Diseases,Central Nervous System Neoplasms,Congenital Abnormalities,Congenital, Hereditary, and Neonatal Diseases and Abnormalities,Craniofacial Abnormalities,Jaw Abnormalities,Jaw Diseases,Jaw Neoplasms,Leukemia,Leukemia, Myeloid,Leukemia, Myeloid, Acute,Leukemia, Promyelocytic, Acute,Maxillary Diseases,Maxillary Neoplasms,Maxillofacial Abnormalities,Meningeal Neoplasms,Meningioma,Musculoskeletal Abnormalities,Musculoskeletal Diseases,Neoplasms,Neoplasms by Histologic Type,Neoplasms by Site,Neoplasms, Basal Cell,Neoplasms, Germ Cell and Embryonal,Neoplasms, Glandular and Epithelial,Neoplasms, Nerve Tissue,Neoplasms, Neuroepithelial,Neoplasms, Vascular Tissue,Nervous System Diseases,Nervous System Neoplasms,Neuroectodermal Tumors,Neuroectodermal Tumors, Primitive,Odontogenic Tumors,Skin Diseases,Skin Neoplasms,Skin and Connective Tissue Diseases,Skull Neoplasms,Stomatognathic Diseases,Stomatognathic System Abnormalities	Fluocinonide,Halcinonide,Sonidegib,Vismodegib		G=2614, C=168	0.00001	69.1902	G=1308/1306, C=90/78	2	
chr15:66729193	A/T	A	T	SNV		MAP2K1	exonic	1						6.17	p.Tyr134Phe		4311	A=0.9383, T=0.0617	+	3	NM_002755.3	c.401A>T	missense	9.21	0.05	22.0	0.085	0.991	Protein kinase domain,Protein tyrosine kinase																NS,large_cell_carcinoma	ATP binding,Bergmann glial cell differentiation,ERK1 and ERK2 cascade,Golgi apparatus,MAP kinase kinase activity,MAPK cascade,activation of MAPK activity,cell cycle arrest,cell motility,cellular senescence,cerebellar cortex formation,chemotaxis,cytoplasm,cytosol,early endosome,endoplasmic reticulum,epithelial cell proliferation involved in lung morphogenesis,extracellular exosome,face development,focal adhesion,heart development,keratinocyte differentiation,labyrinthine layer development,late endosome,microtubule organizing center,mitochondrion,movement of cell or subcellular component,negative regulation of cell proliferation,negative regulation of gene expression,neuron differentiation,nucleus,peptidyl-tyrosine phosphorylation,placenta blood vessel development,plasma membrane,positive regulation of ERK1 and ERK2 cascade,positive regulation of axonogenesis,positive regulation of gene expression,positive regulation of macromitophagy in response to mitochondrial depolarization,positive regulation of production of miRNAs involved in gene silencing by miRNA,positive regulation of protein serine/threonine kinase activity,positive regulation of transcription, DNA-templated,protein C-terminus binding,protein N-terminus binding,protein binding,protein kinase activity,protein kinase binding,protein serine/threonine kinase activator activity,protein serine/threonine kinase activity,protein serine/threonine/tyrosine kinase activity,protein tyrosine kinase activity,proteolysis in other organism,regulation of Golgi inheritance,regulation of axon regeneration,regulation of early endosome to late endosome transport,regulation of stress-activated MAPK cascade,signal transducer, downstream of receptor, with protein tyrosine phosphatase activity,signal transducer, downstream of receptor, with serine/threonine kinase activity,signal transduction,thymus development,thyroid gland development,trachea formation	Abnormalities, Multiple,Brain Diseases,Brain Ischemia,Cardiovascular Abnormalities,Cardiovascular Diseases,Central Nervous System Diseases,Cerebrovascular Disorders,Congenital Abnormalities,Congenital, Hereditary, and Neonatal Diseases and Abnormalities,Connective Tissue Diseases,Costello Syndrome,Craniofacial Abnormalities,Genetic Diseases, Inborn,Heart Defects, Congenital,Heart Diseases,Hemic and Lymphatic Diseases,Immune System Diseases,Immunoproliferative Disorders,Leukemia,Leukemia, Hairy Cell,Lymphatic Diseases,Lymphoproliferative Disorders,Melanoma,Musculoskeletal Abnormalities,Musculoskeletal Diseases,Neoplasms,Neoplasms by Histologic Type,Neoplasms by Site,Neoplasms, Germ Cell and Embryonal,Neoplasms, Nerve Tissue,Nervous System Diseases,Neuroectodermal Tumors,Neuroendocrine Tumors,Nevi and Melanomas,Noonan Syndrome,Skin and Connective Tissue Diseases,Vascular Diseases	(5S)-4,5-difluoro-6-(2-fluoro-4-iodophenyl)imino-N-(2-hydroxyethoxy)cyclohexa-1,3-diene-1-carboxamide,2-(2-chloro-4-iodophenyl)amino-N-{(2R)-2,3-dihydroxypropyloxy}-3,4-difluorobenzamide,2-(4-ETHYNYL-2-FLUOROPHENYL)AMINO-3,4-DIFLUORO-N-(2-HYDROXYETHOXY)BENZAMIDE,5-Bromo-N-(2,3-Dihydroxypropoxy)-3,4-Difluoro-2-(2-Fluoro-4-Iodophenyl)AminoBenzamide,Bosutinib,Cobimetinib,K-252a,N-(5-{3,4-difluoro-2-(2-fluoro-4-iodophenyl)aminophenyl}-1,3,4-oxadiazol-2-yl)ethane-1,2-diamine,N-{(2R)-2,3-dihydroxypropyloxy}-3,4-difluoro-2-(2-fluoro-4-iodophenyl)aminobenzamide,Trametinib		A=4045, T=266	0.00001	109.481	A=2096/1949, T=120/146	1	
chr19:17949164	T/A	T	A,G	SNV		JAK3	exonic	1	Hotspot	Gain-of-function	HS	COSM48455;COSM711172		A=8.39, G=0.00	p.Ser493Cys		10091	T=0.9161, A=0.0839, G=0.0	-	11	NM_000215.3	c.1477A>T	missense	0.26	0.05	112.0	0.662	0.065,0.086	Protein kinase domain,Protein tyrosine kinase																adenocarcinoma,squamous_cell_carcinoma	ATP binding,B cell differentiation,JAK-STAT cascade involved in growth hormone signaling pathway,MAPK cascade,Ras guanyl-nucleotide exchange factor activity,STAT protein import into nucleus,T cell homeostasis,adaptive immune response,cell migration,cytoskeleton,cytosol,endomembrane system,enzyme linked receptor protein signaling pathway,extrinsic component of cytoplasmic side of plasma membrane,innate immune response,interleukin-4-mediated signaling pathway,intracellular signal transduction,negative regulation of FasL biosynthetic process,negative regulation of T cell activation,negative regulation of T-helper 1 cell differentiation,negative regulation of dendritic cell cytokine production,negative regulation of interleukin-10 production,negative regulation of interleukin-12 production,negative regulation of thymocyte apoptotic process,non-membrane spanning protein tyrosine kinase activity,peptidyl-tyrosine autophosphorylation,peptidyl-tyrosine phosphorylation,positive regulation of GTPase activity,positive regulation of T cell proliferation,positive regulation of activated T cell proliferation,positive regulation of calcium ion transport,positive regulation of cytosolic calcium ion concentration,positive regulation of immune response,protein binding,protein phosphatase binding,protein phosphorylation,protein tyrosine kinase activity,receptor binding,regulation of T cell apoptotic process,response to interleukin-15,response to interleukin-2,response to interleukin-4,response to interleukin-9,tyrosine phosphorylation of STAT protein,tyrosine phosphorylation of Stat5 protein	Bone Marrow Diseases,Congenital, Hereditary, and Neonatal Diseases and Abnormalities,DNA Repair-Deficiency Disorders,Hematologic Diseases,Hemic and Lymphatic Diseases,Immune System Diseases,Immunologic Deficiency Syndromes,Infant, Newborn, Diseases,Leukemia,Leukemia, Myeloid,Leukemia, Myelomonocytic, Juvenile,Metabolic Diseases,Myelodysplastic-Myeloproliferative Diseases,Neoplasms,Neoplasms by Histologic Type,Nutritional and Metabolic Diseases,Severe Combined Immunodeficiency	2-(1,1-DIMETHYLETHYL)9-FLUORO-3,6-DIHYDRO-7H-BENZH-IMIDAZ4,5-FISOQUINOLIN-7-ONE,3-{(3R,4R)-4-methyl-3-methyl(7H-pyrrolo2,3-dpyrimidin-4-yl)aminopiperidin-1-yl}-3-oxopropanenitrile,Tofacitinib		T=9244, A=847, G=0	0.00001	2587.58	T=4333/4911, A=346/501, G=0/0	1,1	
